<?xml version="1.0" encoding="utf-8"?>
<!DOCTYPE TS>
<TS version="2.1">
<context>
    <name>QObject</name>
    <message>
        <location filename="main.cpp" line="45"/>
        <source>abc</source>
        <comment>ascii</comment>
        <translation type="unfinished"></translation>
    </message>
    <message>
        <location filename="main.cpp" line="46"/>
        <source>æøå</source>
        <comment>utf-8</comment>
        <translation type="unfinished"></translation>
    </message>
    <message>
        <location filename="main.cpp" line="47"/>
        <source>æøå</source>
        <comment>utf-8 oct</comment>
        <translation type="unfinished"></translation>
    </message>
    <message>
        <location filename="main.cpp" line="48"/>
        <source>Für Élise</source>
        <comment>trUtf8</comment>
        <translation type="unfinished"></translation>
    </message>
    <message>
        <location filename="main.cpp" line="49"/>
        <source>Für Élise</source>
        <comment>trUtf8 oct</comment>
        <translation type="unfinished"></translation>
    </message>
</context>
</TS>
