<?xml version="1.0" encoding="utf-8"?>
<!DOCTYPE TS>
<TS version="2.1">
<context>
    <name>Foo</name>
    <message>
        <location filename="foo.cpp" line="+46"/>
        <source>This is the first entry.</source>
        <translation type="unfinished"></translation>
    </message>
    <message>
        <location line="+1"/>
        <source>A second message.</source>
        <translation type="unfinished"></translation>
    </message>
    <message>
        <location line="+0"/>
        <source>And a second one on the same line.</source>
        <translation type="unfinished"></translation>
    </message>
    <message>
        <location line="+2"/>
        <source>This tr is new.</source>
        <translation type="unfinished"></translation>
    </message>
    <message>
        <location line="+1"/>
        <source>This one moved in from another file.</source>
        <translation type="unfinished"></translation>
    </message>
    <message>
        <location line="+1"/>
        <source>Now again one which is just where it was.</source>
        <translation type="unfinished"></translation>
    </message>
    <message>
        <location line="+2"/>
        <source>Just as this one.</source>
        <translation type="unfinished"></translation>
    </message>
    <message>
        <location line="+1"/>
        <source>Another alien.</source>
        <translation type="unfinished"></translation>
    </message>
    <message>
        <location line="+4"/>
        <source>They are coming!</source>
        <translation type="unfinished"></translation>
    </message>
    <message>
        <location line="+1"/>
        <source>They are everywhere!</source>
        <translation type="unfinished"></translation>
    </message>
    <message>
        <location line="+1"/>
        <source>An earthling again.</source>
        <translation type="unfinished"></translation>
    </message>
    <message>
        <location line="-5"/>
        <source>This is from the bottom, too.</source>
        <translation type="unfinished"></translation>
    </message>
    <message>
        <location line="+1"/>
        <source>Third string from the bottom.</source>
        <translation type="unfinished"></translation>
    </message>
    <message>
        <location line="+1"/>
        <source>Fourth one!</source>
        <translation type="unfinished"></translation>
    </message>
    <message>
        <location line="-9"/>
        <source>This string did move from the bottom.</source>
        <translation type="unfinished"></translation>
    </message>
</context>
</TS>
